{
  "name": "caterpie",
  "nationalPokedexNumber": 10,
  "primaryType": "bug",
  "secondaryType": null,
  "maleRatio": 0.5,
  "baseStats": {
    "hp": 45,
    "attack": 30,
    "defence": 35,
    "specialAttack": 20,
    "specialDefence": 20,
    "speed": 45
  },
  "levelUpMoves": {
    "1": ["tackle", "stringshot"],
    "9": [ "bugbite" ]
  },
  "catchRate": 255,
  "experienceGroup": "mediumslow",
  "baseExperienceYield": 64,
  "baseScale": 0.8,
  "abilities": [
    "shielddust",
    "h:runaway"
  ],
  "hitbox": {
    "width": 0.6,
    "height": 0.8,
    "fixed": false
  }
}