{
  "name": "charmeleon",
  "nationalPokedexNumber": 5,
  "primaryType": "fire",
  "maleRatio": 0.875,
  "baseStats": {
    "hp": 58,
    "attack": 64,
    "defence": 58,
    "special_attack": 80,
    "special_defence": 65,
    "speed": 80
  },
  "levelUpMoves": {
    "1": [ "scratch", "growl", "ember", "smokescreen"],
    "12": [ "dragonbreath" ],
    "19": [ "firefang" ],
    "24": [ "slash" ],
    "30": [ "flamethrower" ],
    "37": [ "scaryface" ],
    "42": [ "firespin" ],
    "48": [ "inferno" ],
    "54": [ "flareblitz" ]
  },
  "catchRate": 45,
  "experienceGroup": "mediumslow",
  "baseExperienceYield": 142,
  "baseScale": 0.8,
  "abilities": [
    "blaze",
    "h:solarpower"
  ],
  "hitbox": {
    "width": 0.7,
    "height": 1.5,
    "fixed": false
  },
  "evolutions": [
    {
      "variant": "level_up",
      "levels": 36,
      "id": "charmeleon_level",
      "result": "Charizard",
      "optional": true,
      "consumeHeldItem": false,
      "requirements": [],
      "learnableMoves": ["Air Slash"]
    }
  ],
  "preEvolution": "Charmander"
}