{
  "name": "charizard",
  "nationalPokedexNumber": 6,
  "primaryType": "fire",
  "secondaryType": "flying",
  "maleRatio": 0.875,
  "baseStats": {
    "hp": 78,
    "attack": 84,
    "defence": 78,
    "special_attack": 109,
    "special_defence": 85,
    "speed": 100
  },
  "levelUpMoves": {
    "1": [ "scratch", "growl", "ember", "smokescreen", "airslash", "dragonclaw", "heatwave"],
    "12": [ "dragonbreath" ],
    "19": [ "firefang" ],
    "24": [ "slash" ],
    "30": [ "flamethrower" ],
    "39": [ "scaryface" ],
    "46": [ "firespin" ],
    "54": [ "inferno" ],
    "62": [ "flareblitz" ]
  },
  "catchRate": 45,
  "experienceGroup": "mediumslow",
  "baseExperienceYield": 240,
  "baseScale": 1.65,
  "abilities": [
    "blaze",
    "h:solarpower"
  ],
  "hitbox": {
    "width": 0.7,
    "height": 2,
    "fixed": false
  },
  "preEvolution": "Charmeleon"
}