{
  "name": "dugtrio",
  "nationalPokedexNumber": 51,
  "primaryType": "ground",
  "maleRatio": 0.5,
  "baseStats": {
    "hp": 35,
    "attack": 100,
    "defence": 60,
    "special_attack": 50,
    "special_defence": 70,
    "speed": 110
  },
  "levelUpMoves": {
    "1": [ "sandattack", "scratch", "growl", "astonish", "sandtomb", "nightslash", "triattack" ],
    "12": [ "mudslap" ],
    "16": [ "bulldoze" ],
    "20": [ "suckerpunch" ],
    "24": [ "slash" ],
    "30": [ "sandstorm" ],
    "36": [ "dig" ],
    "42": [ "earthpower" ],
    "48": [ "earthquake" ],
    "54": [ "fissure" ]
  },
  "catchRate": 50,
  "experienceGroup": "mediumfast",
  "baseExperienceYield": 149,
  "baseScale": 0.9,
  "abilities": [
    "sandveil",
    "arenatrap",
    "h:sandforce"
  ],
  "hitbox": {
    "width": 0.8,
    "height": 0.9,
    "fixed": false
  }
}