{
  "name": "venusaur",
  "nationalPokedexNumber": 3,
  "primaryType": "grass",
  "secondaryType": "poison",
  "maleRatio": 0.875,
  "baseStats": {
    "hp": 80,
    "attack": 82,
    "defence": 83,
    "special_attack": 100,
    "special_defence": 100,
    "speed": 80
  },
  "levelUpMoves": {
    "1": [ "petalblizzard", "petaldance", "tackle", "growl", "vinewhip", "growth" ],
    "9": [ "leechseed" ],
    "12": [ "razorleaf" ],
    "15": [ "poisonpowder", "sleeppowder" ],
    "20": [ "seedbomb" ],
    "25": [ "takedown" ],
    "30": [ "sweetscent" ],
    "37": [ "synthesis" ],
    "44": [ "worryseed" ],
    "51": [ "doubleedge" ],
    "58": [ "solarbeam" ]
  },
  "catchRate": 45,
  "experienceGroup": "mediumslow",
  "baseExperienceYield": 236,
  "baseScale": 1.2,
  "abilities": [
    "overgrow",
    "h:chlorophyll"
  ],
  "hitbox": {
    "width": 0.9,
    "height": 0.8,
    "fixed": false
  },
  "preEvolution": "Ivysaur"
}