{
  "animator": "ivysaur",
  "model": "pokemoncobbled:bedrock/models/ivysaur.geo.json",
  "texture": "pokemoncobbled:textures/pokemon/ivysaur.png",
  "variations": [
    {
      "aspects": ["shiny"],
      "texture": "pokemoncobbled:textures/pokemon/ivysaur_shiny.png"
    }
  ]
}