{
  "name": "earthpower",
  "type": "Ground",
  "damageCategory": "Special",
  "target": "normal",
  "power": 90,
  "accuracy": 100,
  "pp": 10,
  "priority": 0,
  "effectChance": 10,
  "flags": {
    "protect": 1,
    "mirror": 1,
    "nonsky": 1
  }
}