{
  "name": "eeriespell",
  "type": "Psychic",
  "damageCategory": "Special",
  "target": "normal",
  "power": 80,
  "accuracy": 100,
  "pp": 5,
  "priority": 0,
  "effectChance": 100,
  "flags": {
    "protect": 1,
    "mirror": 1,
    "sound": 1,
    "bypasssub": 1
  }
}