{
  "name": "flamethrower",
  "type": "Fire",
  "damageCategory": "Special",
  "target": "normal",
  "power": 90,
  "accuracy": 100,
  "pp": 15,
  "priority": 0,
  "effectChance": 10,
  "effectStatus": "brn",
  "flags": {
    "protect": 1,
    "mirror": 1
  }
}