{
  "name": "furycutter",
  "type": "Bug",
  "damageCategory": "Physical",
  "target": "normal",
  "power": 40,
  "accuracy": 95,
  "pp": 20,
  "priority": 0,
  "flags": {
    "contact": 1,
    "protect": 1,
    "mirror": 1
  }
}