{
  "name": "iciclespear",
  "type": "Ice",
  "damageCategory": "Physical",
  "target": "normal",
  "power": 25,
  "accuracy": 100,
  "pp": 30,
  "priority": 0,
  "flags": {
    "protect": 1,
    "mirror": 1
  }
}