{
  "name": "leafstorm",
  "type": "Grass",
  "damageCategory": "Special",
  "target": "normal",
  "power": 130,
  "accuracy": 90,
  "pp": 5,
  "priority": 0,
  "flags": {
    "protect": 1,
    "mirror": 1
  }
}