{
  "name": "leaftornado",
  "type": "Grass",
  "damageCategory": "Special",
  "target": "normal",
  "power": 65,
  "accuracy": 90,
  "pp": 10,
  "priority": 0,
  "effectChance": 50,
  "flags": {
    "protect": 1,
    "mirror": 1
  }
}