{
  "name": "lightscreen",
  "type": "Psychic",
  "damageCategory": "Status",
  "target": "allySide",
  "power": 0,
  "accuracy": 100.0,
  "pp": 30,
  "priority": 0,
  "flags": {
    "snatch": 1
  }
}