{
  "name": "nuzzle",
  "type": "Electric",
  "damageCategory": "Physical",
  "target": "normal",
  "power": 20,
  "accuracy": 100,
  "pp": 20,
  "priority": 0,
  "effectChance": 100,
  "effectStatus": "par",
  "flags": {
    "contact": 1,
    "protect": 1,
    "mirror": 1
  }
}