{
  "name": "roost",
  "type": "Flying",
  "damageCategory": "Status",
  "target": "self",
  "power": 0,
  "accuracy": 100.0,
  "pp": 10,
  "priority": 0,
  "flags": {
    "snatch": 1,
    "heal": 1
  }
}