{
  "name": "selfdestruct",
  "type": "Normal",
  "damageCategory": "Physical",
  "target": "allAdjacent",
  "power": 200,
  "accuracy": 100,
  "pp": 5,
  "priority": 0,
  "flags": {
    "protect": 1,
    "mirror": 1
  }
}