{
  "name": "sizzlyslide",
  "type": "Fire",
  "damageCategory": "Physical",
  "target": "normal",
  "power": 60,
  "accuracy": 100,
  "pp": 20,
  "priority": 0,
  "effectChance": 100,
  "effectStatus": "brn",
  "flags": {
    "contact": 1,
    "protect": 1,
    "defrost": 1
  }
}