{
  "name": "skydrop",
  "type": "Flying",
  "damageCategory": "Physical",
  "target": "any",
  "power": 60,
  "accuracy": 100,
  "pp": 10,
  "priority": 0,
  "flags": {
    "contact": 1,
    "charge": 1,
    "protect": 1,
    "mirror": 1,
    "gravity": 1,
    "distance": 1
  }
}