{
  "name": "waterspout",
  "type": "Water",
  "damageCategory": "Special",
  "target": "allAdjacentFoes",
  "power": 150,
  "accuracy": 100,
  "pp": 5,
  "priority": 0,
  "flags": {
    "protect": 1,
    "mirror": 1
  }
}